(parserid-word      P1      test)
(parserid-word      P2      PUNCT-Dot)
;~~~~~~~~~~
(parserid-word      P1      The)
(parserid-word      P2      big)
(parserid-word      P3      brown)
(parserid-word      P4      fox)
(parserid-word      P5      jumped)
(parserid-word      P6      over)
(parserid-word      P7      the)
(parserid-word      P8      fence)
(parserid-word      P9      PUNCT-Dot)
;~~~~~~~~~~
